

:: Leen Verspeeten ::

/*******************************************************************************
Copyright (c) 2001 Thomas Brattli (www.bratta.com - dhtmlcentral.com)

eXperience DHTML coolMenus - Get it at dhtmlcentral.com
Version 3.02
This script can be used freely as long as all copyright messages are
intact. 
*******************************************************************************/






 













terug




LITERATUUR

                        Barbara Brennan - Licht op de aura 
                        Barbara Brennan - Bronnen van licht
                        Barbara Brennan - Seeds of the spirit
                        Eva Pierrakos - Liefde nader bekeken
                        Eva Pierrakos - Van overleven naar leven
                        Eva Pierrakos - Werken aan jezelf of juist niet
                        Eckhart Tolle - De kracht van het nu
                        Indra Torsten Preiss - Familieopstellingen in de praktijk
                        Susan Thesenga - Het ontwapenende zelf
                        Wibe Veenbaas & Joke Goudswaard - Vonken van verlangen
                        Conny Zweig & Steve Wolf - Ontmoeting met je schaduw 
                        
                        Conny Zweig & Steve Wolf - Omgaan met je schaduw 
                        A.H. Almaas - Diamantreeks (1, 2, 3 en 4)
                        A.H. Almaas - Het Elixir
                        A.H. Almaas - Het Niets
                        Bert Hellinger - De verborgen dynamiek van familiebanden
                        Bert Hellinger - De wijsheid is voortdurend onderweg
                        Sharon Salzberg - Een hart zo groot als de wereld
                        Sogyal Rinpoche - Het Tibetaans boek van leven en sterven
                        Gehlek Rinpoche - Voor de dood niet bang
                        De Moeder - Alle leven is Yoga
                        Osho - Intuition: knowing beyond logic
                        Osho - Bauls: The singing mystics
                        Osho - Sing, dance, rejoice
                        Osho - Meditatiehandboek
                        John Pierrakos - Core Energetics
                        Sri Aurobindo - Bringing down the light
                        Neal Donald Walsh - Een ongewoon gesprek met God
                        Richard Bandler & John Grinder, John - Frogs into 
                        princess: neurolinguistic programming
                        Deepak Chopra - Quantum Healing
                        Valerie Hunt - Infinite mind: the science of human vibration
                        Louise Kaplan - Oneness and separateness: from infant 
                        to individual
                        Sherwin Nuland - The wisdom of the body
                        Satprem - The mind of the cells
                        Caroline Myss - Anatomy of spirit
                        Caroline Myss - Energy-anatomy: the science of spirituality 
                        and health
                        Bernie Siegel - Love, medicine and miracles
                        Maria Reiner Rilke - Duino Elegies
                        Ken Wilber - No boundary: eastern and western approaches 
                        to personal growth
                        Ken Wilber - Sex, ecology, spirituality: the spirit of 
                        evolution











terug












 



